{
    "mail-feature": {
        "file-name": "/srkim/workspace/terrace-spam/sample_data/origin_qs/2020-04-21-08:35:20:810864.qs.gz",
        "qs-info": {
            "head": {
                "qid": "1587425720.629901.140660604241664.mail",
                "crtime": 1587425720,
                "mftime": 1587425720,
                "mailhub": "mail.terracetech.com",
                "clientip": "175.115.94.137",
                "rcv_cnt": 1,
                "subj_cnt": 1,
                "msgid": "SO8lrt7u3EMNTGfxy8KICA.0@notifications.google.com",
                "mimever": 1.0,
                "headlen": 3775,
                "mimetype": 6,
                "mimesubtype": 602,
                "spamrate": 0.0,
                "subjcharset": "UTF-8",
                "subjcsnum": 10000,
                "valid": 5,
                "decsubjcs": "EUC-JP",
                "viruschecked": 1,
                "submission": 1,
                "msgtype": 109
            },
            "msginfoes": {
                "no-msginfo": 1,
                "msginfo": {
                    "subjectvaluep": 3305,
                    "subjectvaluelen": 181,
                    "dummysubjp": 3486,
                    "dummysubjlen": 80
                }
            },
            "sndr": {
                "headfrom": "no-reply+e0310eec@classroom.google.com",
                "noreturn": 1,
                "personal_part": "Google Classroom"
            },
            "rcpts": {
                "no-r": 1,
                "r": {
                    "address": "terracehamadm@terracetech.com",
                    "realaddr": "terracehamadm@terracetech.com",
                    "rcvedaddr": "terracehamadm@terracetech.com",
                    "isqueried": 1,
                    "exist": 1,
                    "mailhost": "mail.terracetech.com",
                    "mailhostid": "TMUzAwMDAwMEEtMDY1",
                    "msgstore": "/opt/TerraceTims/mindex/1/72/72",
                    "forwardmode": 2,
                    "delivery_mode": 1,
                    "quota_warnmsg": 1,
                    "quota_warnrto": 90,
                    "quota_violate_mode": 1,
                    "quota_overlook_rto": 10,
                    "delivery_noti": 1,
                    "routingport": 7777,
                    "userseq": 72,
                    "domseq": 1,
                    "orgaddr": "terracehamadm@terracetech.com",
                    "company_Id": 1,
                    "quota": {
                        "mesgsize": 10240
                    }
                }
            },
            "stats": {
                "no-st": 0
            }
        },
        "mail-size": 13464,
        "header-sequence": [
            "Received",
            "Received",
            "Received",
            "Received",
            "Received",
            "Received",
            "Received",
            "DKIM-Signature",
            "X-Google-DKIM-Signature",
            "X-Gm-Message-State",
            "X-Google-Smtp-Source",
            "MIME-Version",
            "X-Received",
            "Date",
            "X-Notifications",
            "Message-ID",
            "Subject",
            "X-TERRACE-DUMMYSUBJECT",
            "From",
            "To",
            "Content-Type",
            "X-DAOU-SPAMREPORT",
            "X-TERRACE-SPAMMARK",
            "X-TERRACE-SID"
        ],
        "body-sequence": [
            {
                "Content-Type": "text/plain",
                "Attach-Name": null
            },
            {
                "Content-Type": "text/html",
                "Attach-Name": null
            }
        ]
    },
    "head-items": {
        "Received": [
            {
                "ipaddr": "175.115.94.137",
                "feature": {
                    "autonomous_system_number": null,
                    "autonomous_system_organization": null,
                    "connection_type": null,
                    "domain": null,
                    "is_anonymous": false,
                    "is_anonymous_proxy": false,
                    "is_anonymous_vpn": false,
                    "is_hosting_provider": false,
                    "is_legitimate_proxy": false,
                    "is_public_proxy": false,
                    "is_satellite_provider": false,
                    "is_tor_exit_node": false,
                    "isp": null,
                    "organization": null,
                    "static_ip_score": null,
                    "user_type": null,
                    "user_count": null,
                    "ip_address": "175.115.94.137",
                    "_network": null,
                    "_prefix_len": 12
                },
                "continent": "AS;Asia",
                "country": "KR;South Korea"
            },
            {
                "ipaddr": "160.199.8.40",
                "feature": {
                    "autonomous_system_number": null,
                    "autonomous_system_organization": null,
                    "connection_type": null,
                    "domain": null,
                    "is_anonymous": false,
                    "is_anonymous_proxy": false,
                    "is_anonymous_vpn": false,
                    "is_hosting_provider": false,
                    "is_legitimate_proxy": false,
                    "is_public_proxy": false,
                    "is_satellite_provider": false,
                    "is_tor_exit_node": false,
                    "isp": null,
                    "organization": null,
                    "static_ip_score": null,
                    "user_type": null,
                    "user_count": null,
                    "ip_address": "160.199.8.40",
                    "_network": null,
                    "_prefix_len": 13
                },
                "continent": "AS;Asia",
                "country": "JP;Japan"
            },
            {
                "ipaddr": "160.199.8.30",
                "feature": {
                    "autonomous_system_number": null,
                    "autonomous_system_organization": null,
                    "connection_type": null,
                    "domain": null,
                    "is_anonymous": false,
                    "is_anonymous_proxy": false,
                    "is_anonymous_vpn": false,
                    "is_hosting_provider": false,
                    "is_legitimate_proxy": false,
                    "is_public_proxy": false,
                    "is_satellite_provider": false,
                    "is_tor_exit_node": false,
                    "isp": null,
                    "organization": null,
                    "static_ip_score": null,
                    "user_type": null,
                    "user_count": null,
                    "ip_address": "160.199.8.30",
                    "_network": null,
                    "_prefix_len": 13
                },
                "continent": "AS;Asia",
                "country": "JP;Japan"
            },
            {
                "ipaddr": "160.199.8.37",
                "feature": {
                    "autonomous_system_number": null,
                    "autonomous_system_organization": null,
                    "connection_type": null,
                    "domain": null,
                    "is_anonymous": false,
                    "is_anonymous_proxy": false,
                    "is_anonymous_vpn": false,
                    "is_hosting_provider": false,
                    "is_legitimate_proxy": false,
                    "is_public_proxy": false,
                    "is_satellite_provider": false,
                    "is_tor_exit_node": false,
                    "isp": null,
                    "organization": null,
                    "static_ip_score": null,
                    "user_type": null,
                    "user_count": null,
                    "ip_address": "160.199.8.37",
                    "_network": null,
                    "_prefix_len": 13
                },
                "continent": "AS;Asia",
                "country": "JP;Japan"
            },
            {
                "ipaddr": "127.0.0.1",
                "feature": null,
                "continent": null,
                "country": null
            },
            {
                "ipaddr": "209.85.217.70",
                "feature": {
                    "autonomous_system_number": null,
                    "autonomous_system_organization": null,
                    "connection_type": null,
                    "domain": null,
                    "is_anonymous": false,
                    "is_anonymous_proxy": false,
                    "is_anonymous_vpn": false,
                    "is_hosting_provider": false,
                    "is_legitimate_proxy": false,
                    "is_public_proxy": false,
                    "is_satellite_provider": false,
                    "is_tor_exit_node": false,
                    "isp": null,
                    "organization": null,
                    "static_ip_score": null,
                    "user_type": null,
                    "user_count": null,
                    "ip_address": "209.85.217.70",
                    "_network": null,
                    "_prefix_len": 18
                },
                "continent": "NA;North America",
                "country": "US;United States"
            },
            null
        ],
        "DKIM-Signature": {
            "v": "1",
            "a": "rsa-sha256",
            "c": "relaxed/relaxed",
            "d": "google.com",
            "s": "20161025",
            "h": "mime-version:date:message-id:subject:from:to",
            "bh": "IN09oRKJjzawWuPt1lZklikEbrejtATkWROMuojcktk=",
            "b": "MQ45OBsyzVhSvrtLL2o3PmeHUcAdCs4SvLFU1xgk5Icole0jrg8OObKaoyuA3cnBYuxPpAc1Qwv4ulcflkki2P+qYHXiFnaDcekcAc/XV/jbDRnmuw7fInp0i24aEQ4qyCyWpRC41ObTGOu9buHygt7JXo+s7Cw7j935w3iVtnXhjM2+N7b+qbRB8VhKLQlRHLUBpPJ7jOFNEbJvMVTC+LhQdg0DW3LGlhXtNPpAzqmuEZc1asZTwB8kpObm8QLUheDb0xbxoqiysR6tyS7ygtEKTwbLocwtsSd1OHXcrqehz7826dRTUm2YNWne8kef18n8HWA4J+bND8nc1uvJgg=="
        },
        "Date": "20200420_160517",
        "Message-Id": "SO8lrt7u3EMNTGfxy8KICA.0@notifications.google.com",
        "Subject": {
            "all": "予定していた課題「坂井研ZOOMミーティング第1回　4月24日　11時～」を投稿しました",
            "charset": "",
            "token": [
                "zoom"
            ],
            "n_include_num": 6,
            "n_include_en": 4,
            "n_include_ko": 0,
            "n_include_jp": 15,
            "n_include_ch": 14,
            "n_include_url": 0,
            "n_include_email": 0
        },
        "From": {
            "all": "Google Classroom <no-reply+e0310eec@classroom.google.com>",
            "name": "Google Classroom",
            "uid": "no-reply+e0310eec@classroom.google.com",
            "domain": "classroom.google.com"
        },
        "To": {
            "all": "sakaimh@nbu.ac.jp",
            "name": null,
            "uid": "sakaimh@nbu.ac.jp",
            "domain": "nbu.ac.jp"
        },
        "Cc": null,
        "Bcc": null,
        "Reply-To": null,
        "Return-Path": null,
        "Return-Receipt-To": null,
        "User-Agent": null,
        "X-Mailer": null,
        "Received-SPF": null
    },
    "body-items": [
        {
            "Category": 1000,
            "Sub-Category": 1001,
            "Content-Type": "text/plain",
            "Word-List": [
                "2020",
                "zoom",
                "zoom",
                "google",
                "chrome",
                "details",
                "classroom",
                "google",
                "inc",
                "1600",
                "amphitheatre",
                "pkwymountain",
                "view",
                "94043",
                "usa"
            ],
            "URL-List": [
                "https://classroom.google.com/c/NjgwOTg1NTE4MjNa",
                "https://zoom.us/j/2013872849?pwd=Vm8wcWx3emhNQTUwc2I0ZmgyV2FSUT09",
                "https://classroom.google.com/c/NjgwOTg1NTE4MjNa/a/NzE1OTYzMDU2MTFa/details",
                "https://classroom.google.com/s"
            ],
            "Domin-List": [
                "classroom.google.com",
                "zoom.us",
                "classroom.google.com",
                "classroom.google.com"
            ]
        },
        {
            "Category": 1000,
            "Sub-Category": 1002,
            "Content-Type": "text/html",
            "Word-List": [
                "html",
                "body",
                "bgcolor",
                "ffffff",
                "style",
                "font-family",
                "roboto",
                "helvetica",
                "arial",
                "sans-serif",
                "margin",
                "padding",
                "script",
                "type",
                "application",
                "json",
                "data-scope",
                "inboxmarkup",
                "cards",
                "publisher",
                "api_key",
                "name",
                "google",
                "classroom",
                "api_version",
                "updates",
                "snippets",
                "icon",
                "message",
                "action",
                "name",
                "url",
                "entity",
                "external_key",
                "68098551823",
                "subtitle",
                "action",
                "name",
                "2020",
                "url",
                "title",
                "2020",
                "script",
                "table",
                "border",
                "cellpadding",
                "cellspacing",
                "role",
                "presentation",
                "style",
                "collapse",
                "margin",
                "width",
                "100",
                "tbody",
                "bgcolor",
                "202124",
                "bgcolor",
                "202124",
                "style",
                "text-align",
                "center",
                "div",
                "style",
                "height",
                "32px",
                "div",
                "img",
                "aria-hidden",
                "true",
                "style",
                "display",
                "inline-block",
                "margin",
                "height",
                "30px",
                "width",
                "34px",
                "src",
                "div",
                "style",
                "height",
                "16px",
                "div",
                "img",
                "alt",
                "classroom",
                "height",
                "24px",
                "style",
                "display",
                "inline-block",
                "margin",
                "width",
                "180px",
                "src",
                "div",
                "style",
                "height",
                "32px",
                "div",
                "tbody",
                "table",
                "div",
                "style",
                "padding",
                "32px",
                "width",
                "100",
                "table",
                "align",
                "center",
                "cellpadding",
                "cellspacing",
                "role",
                "presentation",
                "style",
                "ffffff",
                "collapse",
                "max-width",
                "528px",
                "min-width",
                "256px",
                "width",
                "100",
                "tbody",
                "height",
                "48px",
                "style",
                "color",
                "212121",
                "font-size",
                "20px",
                "font-weight",
                "700",
                "height",
                "24px",
                "style",
                "color",
                "212121",
                "font-size",
                "14px",
                "font-weight",
                "400",
                "href",
                "style",
                "color",
                "202124",
                "font-weight",
                "400",
                "2020",
                "height",
                "24px",
                "table",
                "bgcolor",
                "fafafa",
                "border",
                "cellpadding",
                "cellspacing",
                "role",
                "presentation",
                "style",
                "border",
                "1px",
                "solid",
                "f0f0f0",
                "1px",
                "solid",
                "c0c0c0",
                "3px",
                "3px",
                "border-top",
                "width",
                "100",
                "tbody",
                "rowspan",
                "width",
                "24px",
                "colspan",
                "height",
                "24px",
                "rowspan",
                "width",
                "24px",
                "style",
                "24px",
                "valign",
                "top",
                "width",
                "72px",
                "div",
                "style",
                "202124",
                "height",
                "72px",
                "width",
                "72px",
                "img",
                "alt",
                "height",
                "72px",
                "src",
                "width",
                "72px",
                "div",
                "table",
                "cellpadding",
                "cellspacing",
                "role",
                "presentation",
                "tbody",
                "style",
                "color",
                "212121",
                "font-size",
                "14px",
                "font-weight",
                "400",
                "height",
                "style",
                "color",
                "212121",
                "font-size",
                "20px",
                "font-weight",
                "500",
                "zoom",
                "height",
                "8px",
                "style",
                "color",
                "737373",
                "font-size",
                "14px",
                "font-weight",
                "400",
                "zoom",
                "google",
                "chrome",
                "height",
                "16px",
                "table",
                "border",
                "cellpadding",
                "cellspacing",
                "role",
                "presentation",
                "style",
                "collapse",
                "display",
                "inline-block",
                "tbody",
                "href",
                "style",
                "3px",
                "box-sizing",
                "border-box",
                "display",
                "inline-block",
                "font-size",
                "14px",
                "font-weight",
                "700",
                "height",
                "32px",
                "line-height",
                "32px",
                "padding",
                "24px",
                "text-align",
                "center",
                "none",
                "uppercase",
                "middle",
                "4285f4",
                "color",
                "ffffff",
                "target",
                "_blank",
                "tbody",
                "table",
                "tbody",
                "table",
                "colspan",
                "height",
                "24px",
                "tbody",
                "table",
                "height",
                "24px",
                "style",
                "color",
                "212121",
                "font-size",
                "14px",
                "font-weight",
                "400",
                "classroom",
                "href",
                "style",
                "color",
                "202124",
                "font-weight",
                "400",
                "height",
                "48px",
                "div",
                "style",
                "border-top",
                "1px",
                "solid",
                "a0a0a0",
                "margin",
                "auto",
                "div",
                "div",
                "style",
                "text-align",
                "center",
                "padding-top",
                "24px",
                "8px",
                "img",
                "alt",
                "google",
                "height",
                "24px",
                "src",
                "width",
                "74px",
                "div",
                "div",
                "style",
                "color",
                "a0a0a0",
                "font-size",
                "12px",
                "font-weight",
                "400",
                "text-align",
                "center",
                "google",
                "inc",
                "1600",
                "amphitheatre",
                "pkwy",
                "mountain",
                "view",
                "94043",
                "usa",
                "div",
                "tbody",
                "table",
                "div",
                "body",
                "html"
            ],
            "URL-List": [
                "https://classroom.google.com/c/NjgwOTg1NTE4MjNa/a/NzE1OTYzMDU2MTFa/details",
                "https://gstatic.com/classroom/themes/img_repair.jpg",
                "https://www.gstatic.com/images/branding/product/2x/classroom_96in128dp.png?foo\\u003dbar",
                "https://classroom.google.com/c/NjgwOTg1NTE4MjNa",
                "https://www.gstatic.com/classroom/email/classroom_logo_white.png",
                "https://www.gstatic.com/classroom/email/classroom_type_white.png",
                "https://classroom.google.com/c/NjgwOTg1NTE4MjNa",
                "https://www.gstatic.com/classroom/email/assignment_icon.png",
                "https://zoom.us/j/2013872849?pwd=Vm8wcWx3emhNQTUwc2I0ZmgyV2FSUT09<br",
                "https://classroom.google.com/c/NjgwOTg1NTE4MjNa/a/NzE1OTYzMDU2MTFa/details",
                "https://classroom.google.com/s",
                "https://www.gstatic.com/classroom/email/google_logo.png"
            ],
            "Domin-List": [
                "classroom.google.com",
                "gstatic.com",
                "www.gstatic.com",
                "classroom.google.com",
                "www.gstatic.com",
                "www.gstatic.com",
                "classroom.google.com",
                "www.gstatic.com",
                "zoom.us",
                "classroom.google.com",
                "classroom.google.com",
                "www.gstatic.com"
            ]
        }
    ]
}