{
    "mail-feature": {
        "file-name": "/srkim/workspace/terrace-spam/sample_data/origin_qs/2020-04-21-08:30:41:694873.qs.gz",
        "qs-info": {
            "head": {
                "qid": "1587425441.507865.140660615747328.mail",
                "crtime": 1587425441,
                "mftime": 1587425441,
                "subject": "Register Now! Pandemics & Financial Inclusion Part I",
                "mailhub": "mail.terracetech.com",
                "clientip": "175.115.94.137",
                "rcv_cnt": 1,
                "subj_cnt": 1,
                "msgid": "1134206927507.1119162686798.2028414588.0.130949JL.2002@scheduler.constantcontact.com",
                "mimever": 1.0,
                "headlen": 3407,
                "mimetype": 6,
                "mimesubtype": 602,
                "spamrate": 0.0,
                "encodedsubj": "Register Now! Pandemics & Financial Inclusion Part I",
                "subjcharset": "US-ASCII",
                "subjcsnum": 401,
                "valid": 5,
                "decsubjcs": "EUC-JP",
                "viruschecked": 1,
                "submission": 1,
                "msgtype": 109
            },
            "msginfoes": {
                "no-msginfo": 1,
                "msginfo": {
                    "subjectvaluep": 2333,
                    "subjectvaluelen": 54,
                    "dummysubjp": 2387,
                    "dummysubjlen": 80
                }
            },
            "sndr": {
                "headfrom": "dbird@torontocentre.org",
                "noreturn": 1,
                "personal_part": "Toronto Centre"
            },
            "rcpts": {
                "no-r": 1,
                "r": {
                    "address": "terracehamadm@terracetech.com",
                    "realaddr": "terracehamadm@terracetech.com",
                    "rcvedaddr": "terracehamadm@terracetech.com",
                    "isqueried": 1,
                    "exist": 1,
                    "mailhost": "mail.terracetech.com",
                    "mailhostid": "TMUzAwMDAwMEEtMDY1",
                    "msgstore": "/opt/TerraceTims/mindex/1/72/72",
                    "forwardmode": 2,
                    "delivery_mode": 1,
                    "quota_warnmsg": 1,
                    "quota_warnrto": 90,
                    "quota_violate_mode": 1,
                    "quota_overlook_rto": 10,
                    "delivery_noti": 1,
                    "routingport": 7777,
                    "userseq": 72,
                    "domseq": 1,
                    "orgaddr": "terracehamadm@terracetech.com",
                    "company_Id": 1,
                    "quota": {
                        "mesgsize": 10240
                    }
                }
            },
            "stats": {
                "no-st": 0
            }
        },
        "mail-size": 18279,
        "header-sequence": [
            "Received",
            "Received",
            "Received",
            "Received-SPF",
            "Received",
            "Return-Path",
            "Received",
            "DKIM-Signature",
            "Message-ID",
            "Date",
            "From",
            "Reply-To",
            "To",
            "Subject",
            "X-TERRACE-DUMMYSUBJECT",
            "MIME-Version",
            "Content-Type",
            "List-Unsubscribe",
            "List-Unsubscribe-Post",
            "X-Campaign-Activity-ID",
            "X-Channel-ID",
            "X-Mailer",
            "X-Return-Path-Hint",
            "X-Roving-Campaignid",
            "X-Roving-Id",
            "X-Feedback-ID",
            "X-CTCT-ID",
            "X-REASON",
            "X-DAOU-SPAMREPORT",
            "X-TERRACEHOSTID",
            "X-TERRACE-SPAMMARK",
            "X-TERRACE-SID"
        ],
        "body-sequence": [
            {
                "Content-Type": "text/plain",
                "Attach-Name": null
            },
            {
                "Content-Type": "text/html",
                "Attach-Name": null
            }
        ]
    },
    "head-items": {
        "Received": [
            {
                "ipaddr": "175.115.94.137",
                "feature": {
                    "autonomous_system_number": null,
                    "autonomous_system_organization": null,
                    "connection_type": null,
                    "domain": null,
                    "is_anonymous": false,
                    "is_anonymous_proxy": false,
                    "is_anonymous_vpn": false,
                    "is_hosting_provider": false,
                    "is_legitimate_proxy": false,
                    "is_public_proxy": false,
                    "is_satellite_provider": false,
                    "is_tor_exit_node": false,
                    "isp": null,
                    "organization": null,
                    "static_ip_score": null,
                    "user_type": null,
                    "user_count": null,
                    "ip_address": "175.115.94.137",
                    "_network": null,
                    "_prefix_len": 12
                },
                "continent": "AS;Asia",
                "country": "KR;South Korea"
            },
            {
                "ipaddr": "61.73.100.27",
                "feature": {
                    "autonomous_system_number": null,
                    "autonomous_system_organization": null,
                    "connection_type": null,
                    "domain": null,
                    "is_anonymous": false,
                    "is_anonymous_proxy": false,
                    "is_anonymous_vpn": false,
                    "is_hosting_provider": false,
                    "is_legitimate_proxy": false,
                    "is_public_proxy": false,
                    "is_satellite_provider": false,
                    "is_tor_exit_node": false,
                    "isp": null,
                    "organization": null,
                    "static_ip_score": null,
                    "user_type": null,
                    "user_count": null,
                    "ip_address": "61.73.100.27",
                    "_network": null,
                    "_prefix_len": 13
                },
                "continent": "AS;Asia",
                "country": "KR;South Korea"
            },
            {
                "ipaddr": "127.0.0.1",
                "feature": null,
                "continent": null,
                "country": null
            },
            {
                "ipaddr": "208.75.123.226",
                "feature": {
                    "autonomous_system_number": null,
                    "autonomous_system_organization": null,
                    "connection_type": null,
                    "domain": null,
                    "is_anonymous": false,
                    "is_anonymous_proxy": false,
                    "is_anonymous_vpn": false,
                    "is_hosting_provider": false,
                    "is_legitimate_proxy": false,
                    "is_public_proxy": false,
                    "is_satellite_provider": false,
                    "is_tor_exit_node": false,
                    "isp": null,
                    "organization": null,
                    "static_ip_score": null,
                    "user_type": null,
                    "user_count": null,
                    "ip_address": "208.75.123.226",
                    "_network": null,
                    "_prefix_len": 21
                },
                "continent": "NA;North America",
                "country": "US;United States"
            },
            {
                "ipaddr": "10.252.0.106:58289",
                "feature": null,
                "continent": null,
                "country": null
            }
        ],
        "Received-SPF": "Pass",
        "Return-Path": {
            "all": "<ADYbikPfFTYGrK0aBseUxyA==_1119162686798_PW/zgIeoEeSePdSuUoQ9KA==@in.constantcontact.com>",
            "name": null,
            "uid": "ADYbikPfFTYGrK0aBseUxyA==_1119162686798_PW/zgIeoEeSePdSuUoQ9KA==@in.constantcontact.com",
            "domain": "in.constantcontact.com"
        },
        "DKIM-Signature": {
            "v": "1",
            "q": "dns/txt",
            "a": "rsa-sha256",
            "c": "relaxed/relaxed",
            "s": "1000073432",
            "d": "auth.ccsend.com",
            "h": "date:mime-version:subject:X-Feedback-ID:message-id:from:reply-to:list-unsubscribe:list-unsubscribe-post:to",
            "bh": "tF8tqJGxbt73WzwWPeiYjdIq2EfsXQNwBkW/atO6kHU=",
            "b": "EL9ECunXVU3QDASTBldWH11HmD0w2h3BQ0/uC4Xc/fA4Ew8fm9tQprYohZSYA90UaXq5QNVdWxqDyctTT97DBHiCaVtLg8hjKeK+raemguFmdZUML9ti9nlI7kqupXQwJEFB8FuhNFBQUQrFZRpKOzs6dpfhX0KEFvgO4HOmBfk="
        },
        "Message-Id": "1134206927507.1119162686798.2028414588.0.130949JL.2002@scheduler.constantcontact.com",
        "Date": "20200420_094944",
        "From": {
            "all": "Toronto Centre <dbird@torontocentre.org>",
            "name": "Toronto Centre",
            "uid": "dbird@torontocentre.org",
            "domain": "torontocentre.org"
        },
        "Reply-To": {
            "all": "dbird@torontocentre.org",
            "name": null,
            "uid": "dbird@torontocentre.org",
            "domain": "torontocentre.org"
        },
        "To": {
            "all": "reasonpark@fss.or.kr",
            "name": null,
            "uid": "reasonpark@fss.or.kr",
            "domain": "fss.or.kr"
        },
        "Subject": {
            "all": "Register Now! Pandemics & Financial Inclusion Part I",
            "charset": "",
            "token": [
                "register",
                "now",
                "pandemics",
                "financial",
                "inclusion",
                "part"
            ],
            "n_include_num": 0,
            "n_include_en": 43,
            "n_include_ko": 0,
            "n_include_jp": 0,
            "n_include_ch": 0,
            "n_include_url": 0,
            "n_include_email": 0
        },
        "X-Mailer": "Roving Constant Contact 2012 (http://www.constantcontact.com)",
        "Cc": null,
        "Bcc": null,
        "Return-Receipt-To": null,
        "User-Agent": null
    },
    "body-items": [
        {
            "Category": 1000,
            "Sub-Category": 1001,
            "Content-Type": "text/plain",
            "Word-List": [
                "sure",
                "follow",
                "social",
                "media",
                "for",
                "more",
                "updates",
                "toronto",
                "centre",
                "phone",
                "416",
                "943-9300",
                "fax",
                "416",
                "943-4800",
                "web",
                "www",
                "org",
                "email",
                "info",
                "org",
                "toronto",
                "centre",
                "toronto",
                "suite",
                "200",
                "toronto",
                "m5c",
                "2b5",
                "canada",
                "unsubscribe",
                "reasonpark",
                "fss",
                "update",
                "profile",
                "about",
                "constant",
                "contact",
                "sent",
                "dbird",
                "org",
                "with",
                "try",
                "email",
                "marketing",
                "for",
                "free",
                "today"
            ],
            "URL-List": [],
            "Domin-List": []
        },
        {
            "Category": 1000,
            "Sub-Category": 1002,
            "Content-Type": "text/html",
            "Word-List": [
                "doctype",
                "html",
                "html",
                "head",
                "meta",
                "charset",
                "utf-8",
                "style",
                "link",
                "color",
                "0099cc",
                "visited",
                "color",
                "0099cc",
                "link",
                "color",
                "0099cc",
                "visited",
                "color",
                "0099cc",
                "style",
                "style",
                "media",
                "only",
                "screen",
                "and",
                "max-width",
                "480px",
                "width",
                "100",
                "important",
                "display",
                "none",
                "important",
                "display",
                "none",
                "important",
                "display",
                "block",
                "important",
                "display",
                "block",
                "important",
                "padding-top",
                "3px",
                "style",
                "head",
                "body",
                "style",
                "ffffff",
                "margin-left",
                "margin-top",
                "font-family",
                "helvetica",
                "neue",
                "helvetica",
                "arial",
                "sans-serif",
                "--including",
                "the",
                "tag",
                "will",
                "allow",
                "your",
                "open",
                "rates",
                "tracked",
                "for",
                "this",
                "campaign--",
                "img",
                "src",
                "alt",
                "--select",
                "this",
                "line",
                "and",
                "paste",
                "your",
                "html",
                "here--",
                "div",
                "align",
                "center",
                "img",
                "src",
                "style",
                "display",
                "block",
                "table",
                "width",
                "750",
                "border",
                "cellspacing",
                "cellpadding",
                "tbody",
                "width",
                "valign",
                "top",
                "bgcolor",
                "999999",
                "img",
                "src",
                "style",
                "display",
                "block",
                "width",
                "700",
                "table",
                "width",
                "700px",
                "border",
                "cellspacing",
                "cellpadding",
                "bgcolor",
                "ffffff",
                "tbody",
                "img",
                "src",
                "alt",
                "toronto",
                "centre",
                "style",
                "display",
                "block",
                "href",
                "img",
                "src",
                "alt",
                "twitter",
                "style",
                "display",
                "block",
                "href",
                "img",
                "src",
                "alt",
                "linkedin",
                "style",
                "display",
                "block",
                "href",
                "img",
                "src",
                "alt",
                "facebook",
                "style",
                "display",
                "block",
                "tbody",
                "table",
                "--this",
                "the",
                "main",
                "container--",
                "table",
                "width",
                "700px",
                "border",
                "cellspacing",
                "cellpadding",
                "bgcolor",
                "ffffff",
                "tbody",
                "--01",
                "main",
                "container--",
                "height",
                "align",
                "center",
                "--content",
                "container",
                "start--",
                "img",
                "src",
                "alt",
                "save",
                "the",
                "date",
                "wednesday",
                "april",
                "9am",
                "est",
                "style",
                "display",
                "block",
                "table",
                "width",
                "700",
                "border",
                "cellspacing",
                "cellpadding",
                "tbody",
                "width",
                "475",
                "height",
                "520",
                "align",
                "center",
                "valign",
                "top",
                "img",
                "src",
                "alt",
                "pandemics",
                "financial",
                "inclusion",
                "toronto",
                "centre",
                "webcast",
                "series",
                "style",
                "display",
                "block",
                "href",
                "img",
                "src",
                "alt",
                "click",
                "here",
                "register",
                "style",
                "display",
                "block",
                "href",
                "dcanakci",
                "org",
                "img",
                "src",
                "alt",
                "click",
                "here",
                "send",
                "your",
                "questions",
                "dcanakci",
                "org",
                "style",
                "display",
                "block",
                "img",
                "src",
                "alt",
                "how",
                "this",
                "crisis",
                "different",
                "style",
                "display",
                "block",
                "img",
                "src",
                "alt",
                "speakers",
                "style",
                "display",
                "block",
                "img",
                "src",
                "alt",
                "speakers",
                "style",
                "display",
                "block",
                "href",
                "img",
                "src",
                "alt",
                "click",
                "here",
                "read",
                "full",
                "biographies",
                "style",
                "display",
                "block",
                "--ceo",
                "message",
                "start--",
                "--tc",
                "notes",
                "sidebar--",
                "--tc",
                "notes",
                "sidebar--",
                "span",
                "style",
                "color",
                "3399cc",
                "font-size",
                "20px",
                "sure",
                "follow",
                "social",
                "media",
                "for",
                "more",
                "updates",
                "span",
                "table",
                "width",
                "300px",
                "border",
                "cellspacing",
                "cellpadding",
                "bgcolor",
                "ffffff",
                "tbody",
                "href",
                "img",
                "src",
                "alt",
                "twitter",
                "style",
                "display",
                "block",
                "href",
                "img",
                "src",
                "alt",
                "linkedin",
                "style",
                "display",
                "block",
                "href",
                "img",
                "src",
                "alt",
                "facebook",
                "style",
                "display",
                "block",
                "tbody",
                "table",
                "tbody",
                "table",
                "--02",
                "content",
                "container",
                "end--",
                "width",
                "700px",
                "--02",
                "footer",
                "start--",
                "--02",
                "footer",
                "end--",
                "--contact",
                "start--",
                "bgcolor",
                "333333",
                "table",
                "width",
                "700px",
                "border",
                "cellspacing",
                "cellpadding",
                "tbody",
                "height",
                "112",
                "span",
                "style",
                "font-size",
                "14px",
                "padding-top",
                "5px",
                "5px",
                "line-height",
                "18px",
                "color",
                "ffffff",
                "toronto",
                "centre",
                "phone",
                "416",
                "943-9300",
                "fax",
                "416",
                "943-4800",
                "web",
                "href",
                "www",
                "org",
                "email",
                "href",
                "info",
                "org",
                "target",
                "_top",
                "info",
                "org",
                "span",
                "tbody",
                "table",
                "--contact",
                "end--",
                "tbody",
                "table",
                "width",
                "valign",
                "top",
                "bgcolor",
                "999999",
                "img",
                "src",
                "style",
                "display",
                "block",
                "tbody",
                "table",
                "div",
                "table",
                "class",
                "width",
                "100",
                "cellpadding",
                "cellspacing",
                "border",
                "style",
                "background",
                "ffffff",
                "margin-left",
                "auto",
                "margin-right",
                "auto",
                "table-layout",
                "auto",
                "important",
                "bgcolor",
                "ffffff",
                "width",
                "100",
                "align",
                "center",
                "valign",
                "top",
                "style",
                "width",
                "100",
                "div",
                "class",
                "align",
                "center",
                "style",
                "margin-left",
                "auto",
                "margin-right",
                "auto",
                "max-width",
                "100",
                "table",
                "width",
                "100",
                "cellpadding",
                "cellspacing",
                "border",
                "class",
                "align",
                "center",
                "valign",
                "top",
                "style",
                "padding",
                "16px",
                "0px",
                "table",
                "class",
                "style",
                "width",
                "580px",
                "border",
                "cellpadding",
                "cellspacing",
                "class",
                "footer-text",
                "align",
                "center",
                "valign",
                "top",
                "style",
                "color",
                "5d5d5d",
                "font-family",
                "verdana",
                "geneva",
                "sans-serif",
                "font-size",
                "12px",
                "padding",
                "4px",
                "0px",
                "span",
                "class",
                "toronto",
                "centre",
                "span",
                "class",
                "span",
                "span",
                "span",
                "class",
                "toronto",
                "suite",
                "200",
                "span",
                "class",
                "span",
                "span",
                "span",
                "class",
                "span",
                "span",
                "class",
                "span",
                "span",
                "class",
                "toronto",
                "m5c",
                "2b5",
                "canada",
                "span",
                "span",
                "class",
                "span",
                "class",
                "footer-row",
                "align",
                "center",
                "valign",
                "top",
                "style",
                "padding",
                "10px",
                "0px",
                "table",
                "cellpadding",
                "cellspacing",
                "border",
                "class",
                "footer-text",
                "align",
                "center",
                "valign",
                "top",
                "style",
                "color",
                "5d5d5d",
                "font-family",
                "verdana",
                "geneva",
                "sans-serif",
                "font-size",
                "12px",
                "padding",
                "4px",
                "0px",
                "href",
                "style",
                "color",
                "5d5d5d",
                "unsubscribe",
                "reasonpark",
                "fss",
                "class",
                "footer-text",
                "align",
                "center",
                "valign",
                "top",
                "style",
                "color",
                "5d5d5d",
                "font-family",
                "verdana",
                "geneva",
                "sans-serif",
                "font-size",
                "12px",
                "padding",
                "4px",
                "0px",
                "href",
                "style",
                "color",
                "5d5d5d",
                "update",
                "profile",
                "class",
                "href",
                "style",
                "color",
                "5d5d5d",
                "about",
                "constant",
                "contact",
                "class",
                "footer-text",
                "align",
                "center",
                "valign",
                "top",
                "style",
                "color",
                "5d5d5d",
                "font-family",
                "verdana",
                "geneva",
                "sans-serif",
                "font-size",
                "12px",
                "padding",
                "4px",
                "0px",
                "sent",
                "href",
                "dbird",
                "org",
                "style",
                "color",
                "5d5d5d",
                "none",
                "dbird",
                "org",
                "span",
                "class",
                "with",
                "span",
                "table",
                "class",
                "footer-text",
                "align",
                "center",
                "valign",
                "top",
                "style",
                "color",
                "5d5d5d",
                "font-family",
                "verdana",
                "geneva",
                "sans-serif",
                "font-size",
                "12px",
                "padding",
                "4px",
                "0px",
                "table",
                "width",
                "240",
                "cellpadding",
                "cellspacing",
                "border",
                "align",
                "center",
                "valign",
                "top",
                "style",
                "padding",
                "0px",
                "0px",
                "3px",
                "10px",
                "href",
                "style",
                "color",
                "5d5d5d",
                "none",
                "img",
                "alt",
                "trusted",
                "email",
                "from",
                "constant",
                "contact",
                "try",
                "free",
                "today",
                "width",
                "211",
                "border",
                "hspace",
                "vspace",
                "src",
                "class",
                "align",
                "center",
                "valign",
                "top",
                "style",
                "color",
                "5d5d5d",
                "font-family",
                "verdana",
                "geneva",
                "sans-serif",
                "font-size",
                "9px",
                "href",
                "style",
                "color",
                "5d5d5d",
                "none",
                "try",
                "email",
                "marketing",
                "for",
                "free",
                "today",
                "table",
                "table",
                "table",
                "div",
                "table",
                "body",
                "html"
            ],
            "URL-List": [
                "http://r20.rs6.net/on.jsp?ca=0d86e290-f7c5-4d81-ab2b-4681b1e531c8&a=1119162686798&c=3c154580-87a8-11e4-9d6f-d4ae52843d28&ch=3d6ff380-87a8-11e4-9e3d-d4ae52843d28",
                "http://www.gerrylewis.com/tc/2019_eblast_images/bg_top2.jpg",
                "http://www.gerrylewis.com/tc/2019_eblast_images/bg_left2.jpg",
                "http://www.gerrylewis.com/tc/2018_eblast_images/nov13_event/tc_logo.png",
                "http://r20.rs6.net/tn.jsp?f=001H3YGy8xnhokJWuXL637dwx9j_TIo6paD5ymTP52gp4oa82433yLGJw0HXJ8h1RjsYyHChIxYAEDLEvtXRRvf97nDa-lBZM2Ehq6xtCvM3C1UFyI7QaztMjvVOVAMUlAz_R5BoA_qOpuSCbu9v0EE2RnTFbBj6nEy&c=hy6LJ4TswbtCvPaMsUW2h3R6iHH68vbydC7oxD9Dr25gYji7nYYy8Q==&ch=I2H6gdueDXzHiaW1_v4m-9Lo1zeMW01X7h1LeWJmnqRDIWWNXegqmw==",
                "http://www.gerrylewis.com/tc/2018_eblast_images/facebook_banner_02.jpg",
                "http://r20.rs6.net/tn.jsp?f=001H3YGy8xnhokJWuXL637dwx9j_TIo6paD5ymTP52gp4oa82433yLGJ2ckXbmGkiMbmJLkzZk9WPNJAWP-uCqjnOn7WxyJ7LU-Jb79YSgf0lSuWbKe5o6DfNoVmabSkk_cds9w-5aG1qEYRUBp1z90g9vUHvWY06AUxsW5Pt4GaPT65baDfhP2ZQ==&c=hy6LJ4TswbtCvPaMsUW2h3R6iHH68vbydC7oxD9Dr25gYji7nYYy8Q==&ch=I2H6gdueDXzHiaW1_v4m-9Lo1zeMW01X7h1LeWJmnqRDIWWNXegqmw==",
                "http://www.gerrylewis.com/tc/2018_eblast_images/facebook_banner_03.jpg",
                "http://r20.rs6.net/tn.jsp?f=001H3YGy8xnhokJWuXL637dwx9j_TIo6paD5ymTP52gp4oa82433yLGJ7IYjcewJIGqmeEtQq5gayMROhf9ct9LD16SB-SDFf8iMpSN9dzHKvbgHyVFhI241CRSs1d2cXFUbDVZtBtaLCwTTZP0ovsqSSyiSNMlSzcrRUIFNFtRW9E=&c=hy6LJ4TswbtCvPaMsUW2h3R6iHH68vbydC7oxD9Dr25gYji7nYYy8Q==&ch=I2H6gdueDXzHiaW1_v4m-9Lo1zeMW01X7h1LeWJmnqRDIWWNXegqmw==",
                "http://www.gerrylewis.com/tc/2018_eblast_images/facebook_banner_04.jpg",
                "http://www.gerrylewis.com/tc/2020_eblast_images/pandemic_fi_1_reminder.png",
                "http://www.gerrylewis.com/tc/2020_eblast_images/how_different.png",
                "http://r20.rs6.net/tn.jsp?f=001H3YGy8xnhokJWuXL637dwx9j_TIo6paD5ymTP52gp4oa82433yLGJyJPWgGV2vlwzgQ9f7_iu_M6sXcr4lyJJ8JjhzANkPaePtmTaFeRG8G7Vz_G-1wH5t9cMvpeSQptARR7yj2Eyc1a7VhgycIF_UWWyrSN7i38YUT59vVtq1ES-XYYqsnA-oF4qmy8Z-Yv&c=hy6LJ4TswbtCvPaMsUW2h3R6iHH68vbydC7oxD9Dr25gYji7nYYy8Q==&ch=I2H6gdueDXzHiaW1_v4m-9Lo1zeMW01X7h1LeWJmnqRDIWWNXegqmw==",
                "http://www.gerrylewis.com/tc/2020_eblast_images/pandemic_save_date_v2.png",
                "http://www.gerrylewis.com/tc/2020_eblast_images/send_questions.png",
                "http://www.gerrylewis.com/tc/2020_eblast_images/pandemic_fi_1_save_date_new2_3.png",
                "http://www.gerrylewis.com/tc/2020_eblast_images/pandemic_series_1_5.png",
                "http://www.gerrylewis.com/tc/2020_eblast_images/pandemic_fi_1_reminder5.png",
                "http://r20.rs6.net/tn.jsp?f=001H3YGy8xnhokJWuXL637dwx9j_TIo6paD5ymTP52gp4oa82433yLGJ-jOYiAmFlS3o3vChCcCK638mx3QVZqK_bl6ZI96getrMtl4Bhx2sQV5nL4OlATx_OFGnXF2kqPBzZUuFaBblfZ1_Mk7NHpGB3hFYfps8IV_zqFkZ7kobGyRa4zP6M08znpjPGNIaSJUN_-bdpaTwjstFByIcRWOc2Af1fka3c_cpj-vgNjSvvC519omVN-jvVuB3O1z6Dw5&c=hy6LJ4TswbtCvPaMsUW2h3R6iHH68vbydC7oxD9Dr25gYji7nYYy8Q==&ch=I2H6gdueDXzHiaW1_v4m-9Lo1zeMW01X7h1LeWJmnqRDIWWNXegqmw==",
                "http://www.gerrylewis.com/tc/2020_eblast_images/pandemic_series_1_7.png",
                "http://r20.rs6.net/tn.jsp?f=001H3YGy8xnhokJWuXL637dwx9j_TIo6paD5ymTP52gp4oa82433yLGJw0HXJ8h1RjsYyHChIxYAEDLEvtXRRvf97nDa-lBZM2Ehq6xtCvM3C1UFyI7QaztMjvVOVAMUlAz_R5BoA_qOpuSCbu9v0EE2RnTFbBj6nEy&c=hy6LJ4TswbtCvPaMsUW2h3R6iHH68vbydC7oxD9Dr25gYji7nYYy8Q==&ch=I2H6gdueDXzHiaW1_v4m-9Lo1zeMW01X7h1LeWJmnqRDIWWNXegqmw==",
                "http://www.gerrylewis.com/tc/2018_eblast_images/ip_save/sm_icon.jpg",
                "http://r20.rs6.net/tn.jsp?f=001H3YGy8xnhokJWuXL637dwx9j_TIo6paD5ymTP52gp4oa82433yLGJ2ckXbmGkiMbmJLkzZk9WPNJAWP-uCqjnOn7WxyJ7LU-Jb79YSgf0lSuWbKe5o6DfNoVmabSkk_cds9w-5aG1qEYRUBp1z90g9vUHvWY06AUxsW5Pt4GaPT65baDfhP2ZQ==&c=hy6LJ4TswbtCvPaMsUW2h3R6iHH68vbydC7oxD9Dr25gYji7nYYy8Q==&ch=I2H6gdueDXzHiaW1_v4m-9Lo1zeMW01X7h1LeWJmnqRDIWWNXegqmw==",
                "http://www.gerrylewis.com/tc/2018_eblast_images/ip_save/sm_icon2.jpg",
                "http://r20.rs6.net/tn.jsp?f=001H3YGy8xnhokJWuXL637dwx9j_TIo6paD5ymTP52gp4oa82433yLGJ7IYjcewJIGqmeEtQq5gayMROhf9ct9LD16SB-SDFf8iMpSN9dzHKvbgHyVFhI241CRSs1d2cXFUbDVZtBtaLCwTTZP0ovsqSSyiSNMlSzcrRUIFNFtRW9E=&c=hy6LJ4TswbtCvPaMsUW2h3R6iHH68vbydC7oxD9Dr25gYji7nYYy8Q==&ch=I2H6gdueDXzHiaW1_v4m-9Lo1zeMW01X7h1LeWJmnqRDIWWNXegqmw==",
                "http://www.gerrylewis.com/tc/2018_eblast_images/ip_save/sm_icon3.jpg",
                "http://r20.rs6.net/tn.jsp?f=001H3YGy8xnhokJWuXL637dwx9j_TIo6paD5ymTP52gp4oa82433yLGJw0HXJ8h1RjsKEyDSuJkGTJIvcoYrsPj4LNKbNA0Lbl2OTK_VXMwBD6ZiZjD8DdVgcmgrBtSgLyRupSa2WqB5A_5gYA_iQxJDz8oJ7tTAIrU&c=hy6LJ4TswbtCvPaMsUW2h3R6iHH68vbydC7oxD9Dr25gYji7nYYy8Q==&ch=I2H6gdueDXzHiaW1_v4m-9Lo1zeMW01X7h1LeWJmnqRDIWWNXegqmw==",
                "http://www.gerrylewis.com/tc/2019_eblast_images/bg_right.jpg",
                "http://www.constantcontact.com/legal/about-constant-contact",
                "http://www.constantcontact.com/index.jsp?cc=nge&rmc=VF19_3GE",
                "http://www.constantcontact.com/index.jsp?cc=nge&rmc=VF19_3GE",
                "https://visitor.constantcontact.com/do?p=un&m=001NpRR4X6IzoOIEv7ot-3YnA%3D&ch=3d6ff380-87a8-11e4-9e3d-d4ae52843d28&ca=0d86e290-f7c5-4d81-ab2b-4681b1e531c8",
                "https://visitor.constantcontact.com/do?p=oo&m=001NpRR4X6IzoOIEv7ot-3YnA%3D&ch=3d6ff380-87a8-11e4-9e3d-d4ae52843d28&ca=0d86e290-f7c5-4d81-ab2b-4681b1e531c8",
                "https://imgssl.constantcontact.com/ui/images1/logo_ctct_2x.png",
                "mailto:",
                "mailto:info@torontocentre.org",
                "mailto:dbird@torontocentre.org"
            ],
            "Domin-List": [
                "r20.rs6.net",
                "www.gerrylewis.com",
                "www.gerrylewis.com",
                "www.gerrylewis.com",
                "r20.rs6.net",
                "www.gerrylewis.com",
                "r20.rs6.net",
                "www.gerrylewis.com",
                "r20.rs6.net",
                "www.gerrylewis.com",
                "www.gerrylewis.com",
                "www.gerrylewis.com",
                "r20.rs6.net",
                "www.gerrylewis.com",
                "www.gerrylewis.com",
                "www.gerrylewis.com",
                "www.gerrylewis.com",
                "www.gerrylewis.com",
                "r20.rs6.net",
                "www.gerrylewis.com",
                "r20.rs6.net",
                "www.gerrylewis.com",
                "r20.rs6.net",
                "www.gerrylewis.com",
                "r20.rs6.net",
                "www.gerrylewis.com",
                "r20.rs6.net",
                "www.gerrylewis.com",
                "www.constantcontact.com",
                "www.constantcontact.com",
                "www.constantcontact.com",
                "visitor.constantcontact.com",
                "visitor.constantcontact.com",
                "imgssl.constantcontact.com",
                "",
                "torontocentre.org",
                "torontocentre.org"
            ]
        }
    ]
}