{
    "mail-feature": {
        "file-name": "/srkim/workspace/terrace-spam/sample_data/origin_qs/2020-04-21-08:31:30:216092.qs.gz",
        "qs-info": {
            "head": {
                "qid": "1587425490.27838.140660604241664.mail",
                "crtime": 1587425490,
                "mftime": 1587425490,
                "subject": "You have been added to a class team in Microsoft Teams",
                "orgsubject": "You have been added to a class team in Microsoft Teams",
                "mailhub": "mail.terracetech.com",
                "clientip": "175.115.94.137",
                "rcv_cnt": 1,
                "subj_cnt": 1,
                "msgid": "f43d9447-186c-41f1-a0c4-5c59f49a8648@MW2NAM12FT017.eop-nam12.prod.protection.outlook.com",
                "mimever": 1.0,
                "headlen": 6954,
                "mimetype": 6,
                "mimesubtype": 606,
                "spamrate": 0.0,
                "encodedsubj": "You have been added to a class team in Microsoft Teams",
                "subjcharset": "utf-8",
                "subjcsnum": 10000,
                "valid": 5,
                "decsubjcs": "US-ASCII",
                "viruschecked": 1,
                "submission": 1,
                "msgtype": 109
            },
            "msginfoes": {
                "no-msginfo": 1,
                "msginfo": {
                    "subjectvaluep": 4337,
                    "subjectvaluelen": 86,
                    "dummysubjp": 4423,
                    "dummysubjlen": 80
                }
            },
            "sndr": {
                "headfrom": "noreply@email.teams.microsoft.com",
                "noreturn": 1,
                "personal_part": "Microsoft Teams"
            },
            "rcpts": {
                "no-r": 1,
                "r": {
                    "address": "terracehamadm@terracetech.com",
                    "realaddr": "terracehamadm@terracetech.com",
                    "rcvedaddr": "terracehamadm@terracetech.com",
                    "isqueried": 1,
                    "exist": 1,
                    "mailhost": "mail.terracetech.com",
                    "mailhostid": "TMUzAwMDAwMEEtMDY1",
                    "msgstore": "/opt/TerraceTims/mindex/1/72/72",
                    "forwardmode": 2,
                    "delivery_mode": 1,
                    "quota_warnmsg": 1,
                    "quota_warnrto": 90,
                    "quota_violate_mode": 1,
                    "quota_overlook_rto": 10,
                    "delivery_noti": 1,
                    "routingport": 7777,
                    "userseq": 72,
                    "domseq": 1,
                    "orgaddr": "terracehamadm@terracetech.com",
                    "company_Id": 1,
                    "quota": {
                        "mesgsize": 10240
                    }
                }
            },
            "stats": {
                "no-st": 0
            }
        },
        "mail-size": 28979,
        "header-sequence": [
            "Received",
            "Received",
            "Received",
            "Received",
            "Received",
            "Received",
            "ARC-Seal",
            "ARC-Message-Signature",
            "ARC-Authentication-Results",
            "DKIM-Signature",
            "Received",
            "Authentication-Results",
            "Received-SPF",
            "Received",
            "MIME-Version",
            "From",
            "To",
            "Date",
            "Subject",
            "X-TERRACE-DUMMYSUBJECT",
            "Content-Type",
            "Message-ID",
            "X-EOPAttributedMessage",
            "X-Forefront-Antispam-Report",
            "X-MS-PublicTrafficType",
            "X-MS-Office365-Filtering-Correlation-Id",
            "X-MS-TrafficTypeDiagnostic",
            "X-Microsoft-Antispam-PRVS",
            "X-MS-Oob-TLC-OOBClassifiers",
            "X-Forefront-PRVS",
            "X-MS-Exchange-SenderADCheck",
            "X-Microsoft-Antispam",
            "X-Microsoft-Antispam-Message-Info",
            "X-OriginatorOrg",
            "X-MS-Exchange-CrossTenant-OriginalArrivalTime",
            "X-MS-Exchange-CrossTenant-Network-Message-Id",
            "X-MS-Exchange-CrossTenant-Id",
            "X-MS-Exchange-CrossTenant-OriginalAttributedTenantConnectingIp",
            "X-MS-Exchange-CrossTenant-FromEntityHeader",
            "X-MS-Exchange-Transport-CrossTenantHeadersStamped",
            "X-DAOU-SPAMREPORT",
            "X-TERRACE-SPAMMARK",
            "X-TERRACE-SID"
        ],
        "body-sequence": [
            {
                "Content-Type": "text/html",
                "Attach-Name": null
            },
            {
                "Content-Type": "image/jpeg",
                "Attach-Name": null
            }
        ]
    },
    "head-items": {
        "Received": [
            {
                "ipaddr": "175.115.94.137",
                "feature": {
                    "autonomous_system_number": null,
                    "autonomous_system_organization": null,
                    "connection_type": null,
                    "domain": null,
                    "is_anonymous": false,
                    "is_anonymous_proxy": false,
                    "is_anonymous_vpn": false,
                    "is_hosting_provider": false,
                    "is_legitimate_proxy": false,
                    "is_public_proxy": false,
                    "is_satellite_provider": false,
                    "is_tor_exit_node": false,
                    "isp": null,
                    "organization": null,
                    "static_ip_score": null,
                    "user_type": null,
                    "user_count": null,
                    "ip_address": "175.115.94.137",
                    "_network": null,
                    "_prefix_len": 12
                },
                "continent": "AS;Asia",
                "country": "KR;South Korea"
            },
            {
                "ipaddr": "160.199.8.40",
                "feature": {
                    "autonomous_system_number": null,
                    "autonomous_system_organization": null,
                    "connection_type": null,
                    "domain": null,
                    "is_anonymous": false,
                    "is_anonymous_proxy": false,
                    "is_anonymous_vpn": false,
                    "is_hosting_provider": false,
                    "is_legitimate_proxy": false,
                    "is_public_proxy": false,
                    "is_satellite_provider": false,
                    "is_tor_exit_node": false,
                    "isp": null,
                    "organization": null,
                    "static_ip_score": null,
                    "user_type": null,
                    "user_count": null,
                    "ip_address": "160.199.8.40",
                    "_network": null,
                    "_prefix_len": 13
                },
                "continent": "AS;Asia",
                "country": "JP;Japan"
            },
            {
                "ipaddr": "160.199.8.30",
                "feature": {
                    "autonomous_system_number": null,
                    "autonomous_system_organization": null,
                    "connection_type": null,
                    "domain": null,
                    "is_anonymous": false,
                    "is_anonymous_proxy": false,
                    "is_anonymous_vpn": false,
                    "is_hosting_provider": false,
                    "is_legitimate_proxy": false,
                    "is_public_proxy": false,
                    "is_satellite_provider": false,
                    "is_tor_exit_node": false,
                    "isp": null,
                    "organization": null,
                    "static_ip_score": null,
                    "user_type": null,
                    "user_count": null,
                    "ip_address": "160.199.8.30",
                    "_network": null,
                    "_prefix_len": 13
                },
                "continent": "AS;Asia",
                "country": "JP;Japan"
            },
            {
                "ipaddr": "160.199.8.37",
                "feature": {
                    "autonomous_system_number": null,
                    "autonomous_system_organization": null,
                    "connection_type": null,
                    "domain": null,
                    "is_anonymous": false,
                    "is_anonymous_proxy": false,
                    "is_anonymous_vpn": false,
                    "is_hosting_provider": false,
                    "is_legitimate_proxy": false,
                    "is_public_proxy": false,
                    "is_satellite_provider": false,
                    "is_tor_exit_node": false,
                    "isp": null,
                    "organization": null,
                    "static_ip_score": null,
                    "user_type": null,
                    "user_count": null,
                    "ip_address": "160.199.8.37",
                    "_network": null,
                    "_prefix_len": 13
                },
                "continent": "AS;Asia",
                "country": "JP;Japan"
            },
            {
                "ipaddr": "127.0.0.1",
                "feature": null,
                "continent": null,
                "country": null
            },
            {
                "ipaddr": "40.107.243.64",
                "feature": {
                    "autonomous_system_number": null,
                    "autonomous_system_organization": null,
                    "connection_type": null,
                    "domain": null,
                    "is_anonymous": false,
                    "is_anonymous_proxy": false,
                    "is_anonymous_vpn": false,
                    "is_hosting_provider": false,
                    "is_legitimate_proxy": false,
                    "is_public_proxy": false,
                    "is_satellite_provider": false,
                    "is_tor_exit_node": false,
                    "isp": null,
                    "organization": null,
                    "static_ip_score": null,
                    "user_type": null,
                    "user_count": null,
                    "ip_address": "40.107.243.64",
                    "_network": null,
                    "_prefix_len": 23
                },
                "continent": "NA;North America",
                "country": "US;United States"
            },
            {
                "ipaddr": "2a01:111:e400:fc65::46",
                "feature": {
                    "autonomous_system_number": null,
                    "autonomous_system_organization": null,
                    "connection_type": null,
                    "domain": null,
                    "is_anonymous": false,
                    "is_anonymous_proxy": false,
                    "is_anonymous_vpn": false,
                    "is_hosting_provider": false,
                    "is_legitimate_proxy": false,
                    "is_public_proxy": false,
                    "is_satellite_provider": false,
                    "is_tor_exit_node": false,
                    "isp": null,
                    "organization": null,
                    "static_ip_score": null,
                    "user_type": null,
                    "user_count": null,
                    "ip_address": "2a01:111:e400:fc65::46",
                    "_network": null,
                    "_prefix_len": 36
                },
                "continent": "EU;Europe",
                "country": "GB;United Kingdom"
            },
            {
                "ipaddr": "104.42.122.61",
                "feature": {
                    "autonomous_system_number": null,
                    "autonomous_system_organization": null,
                    "connection_type": null,
                    "domain": null,
                    "is_anonymous": false,
                    "is_anonymous_proxy": false,
                    "is_anonymous_vpn": false,
                    "is_hosting_provider": false,
                    "is_legitimate_proxy": false,
                    "is_public_proxy": false,
                    "is_satellite_provider": false,
                    "is_tor_exit_node": false,
                    "isp": null,
                    "organization": null,
                    "static_ip_score": null,
                    "user_type": null,
                    "user_count": null,
                    "ip_address": "104.42.122.61",
                    "_network": null,
                    "_prefix_len": 16
                },
                "continent": "NA;North America",
                "country": "US;United States"
            }
        ],
        "DKIM-Signature": {
            "v": "1",
            "a": "rsa-sha256",
            "c": "relaxed/relaxed",
            "d": "email.teams.microsoft.com",
            "s": "selector1",
            "h": "From:Date:Subject:Message-ID:Content-Type:MIME-Version:X-MS-Exchange-SenderADCheck",
            "bh": "1jNs5ZxH14ng38nDfM4OdL0DvskFo9OZbSXA6BZgt8k=",
            "b": "kvkMqrBKQj2R2iqrulgzNg4vzkZz8M1q6u54rCw3QzU2lqIamu/COceGcOeVx/LCiNvmKFZSS+9mqCGo6L3e9z6v6BPDapDIgwWsVbn9v/+XBBv92mzTdZQ2+tZfCNntMy52CixO6jaSfWbAsdG3KwROeel3hxYDaHBOkjqhl6k="
        },
        "Received-SPF": "Pass",
        "From": {
            "all": "Microsoft Teams <noreply@email.teams.microsoft.com>",
            "name": "Microsoft Teams",
            "uid": "noreply@email.teams.microsoft.com",
            "domain": "email.teams.microsoft.com"
        },
        "To": {
            "all": "s2024038@nbu.ac.jp",
            "name": null,
            "uid": "s2024038@nbu.ac.jp",
            "domain": "nbu.ac.jp"
        },
        "Date": "20200420_141716",
        "Subject": {
            "all": "You have been added to a class team in Microsoft Teams",
            "charset": "",
            "token": [
                "you",
                "have",
                "been",
                "added",
                "class",
                "team",
                "microsoft",
                "teams"
            ],
            "n_include_num": 0,
            "n_include_en": 44,
            "n_include_ko": 0,
            "n_include_jp": 0,
            "n_include_ch": 0,
            "n_include_url": 0,
            "n_include_email": 0
        },
        "Message-Id": " f43d9447-186c-41f1-a0c4-5c59f49a8648@MW2NAM12FT017.eop-nam12.prod.protection.outlook.com",
        "Cc": null,
        "Bcc": null,
        "Reply-To": null,
        "Return-Path": null,
        "Return-Receipt-To": null,
        "User-Agent": null,
        "X-Mailer": null
    },
    "body-items": [
        {
            "Category": 1000,
            "Sub-Category": 1002,
            "Content-Type": "text/html",
            "Word-List": [
                "doctype",
                "html",
                "public",
                "w3c",
                "dtd",
                "html",
                "transitional",
                "html",
                "head",
                "head",
                "body",
                "style",
                "margin",
                "padding",
                "10px",
                "table",
                "border",
                "cellspacing",
                "cellpadding",
                "width",
                "100",
                "align",
                "center",
                "table",
                "border",
                "bgcolor",
                "eef1f5",
                "cellspacing",
                "cellpadding",
                "width",
                "604",
                "align",
                "center",
                "style",
                "border-top",
                "4px",
                "solid",
                "5558af",
                "padding",
                "20px",
                "font-family",
                "segoe",
                "tahoma",
                "geneva",
                "verdana",
                "sans-serif",
                "font-size",
                "24px",
                "color",
                "5558af",
                "microsoft",
                "teams",
                "align",
                "center",
                "style",
                "padding",
                "20px",
                "style",
                "color",
                "16233a",
                "font-family",
                "segoe",
                "tahoma",
                "geneva",
                "verdana",
                "sans-serif",
                "font-weight",
                "600",
                "margin",
                "added",
                "you",
                "the",
                "2020",
                "class",
                "align",
                "center",
                "style",
                "padding",
                "162px",
                "table",
                "border",
                "bgcolor",
                "ffffff",
                "cellspacing",
                "cellpadding",
                "width",
                "280",
                "width",
                "nbsp",
                "align",
                "center",
                "style",
                "padding",
                "20px",
                "width",
                "260",
                "img",
                "src",
                "cid",
                "alt",
                "2020",
                "height",
                "width",
                "width",
                "nbsp",
                "width",
                "nbsp",
                "align",
                "center",
                "style",
                "max-width",
                "260px",
                "overflow",
                "hidden",
                "width",
                "260",
                "style",
                "color",
                "16233a",
                "font-family",
                "segoe",
                "tahoma",
                "geneva",
                "verdana",
                "sans-serif",
                "font-weight",
                "600",
                "margin",
                "2020",
                "width",
                "nbsp",
                "width",
                "nbsp",
                "align",
                "center",
                "style",
                "color",
                "535c6d",
                "font-family",
                "segoe",
                "tahoma",
                "geneva",
                "verdana",
                "sans-serif",
                "font-size",
                "14px",
                "line-height",
                "20px",
                "padding",
                "10px",
                "max-width",
                "260px",
                "max-height",
                "20px",
                "overflow",
                "hidden",
                "width",
                "260",
                "members",
                "width",
                "nbsp",
                "width",
                "nbsp",
                "align",
                "center",
                "style",
                "border-top",
                "1px",
                "solid",
                "e2e7ec",
                "color",
                "535c6d",
                "font-family",
                "segoe",
                "tahoma",
                "geneva",
                "verdana",
                "sans-serif",
                "font-size",
                "14px",
                "line-height",
                "20px",
                "padding",
                "10px",
                "20px",
                "max-width",
                "260px",
                "max-height",
                "60px",
                "overflow",
                "hidden",
                "width",
                "260",
                "width",
                "nbsp",
                "table",
                "table",
                "table",
                "bgcolor",
                "eef1f5",
                "border",
                "cellpadding",
                "cellspacing",
                "width",
                "604",
                "align",
                "center",
                "style",
                "padding",
                "5px",
                "162px",
                "40px",
                "table",
                "border",
                "cellspacing",
                "cellpadding",
                "width",
                "280",
                "align",
                "center",
                "bgcolor",
                "5558af",
                "style",
                "border",
                "2px",
                "solid",
                "5558af",
                "padding",
                "10px",
                "0px",
                "width",
                "280",
                "href",
                "target",
                "_blank",
                "style",
                "font-family",
                "segoe",
                "tahoma",
                "geneva",
                "verdana",
                "sans-serif",
                "font-size",
                "14px",
                "color",
                "fff",
                "none",
                "open",
                "microsoft",
                "teams",
                "table",
                "table",
                "table",
                "bgcolor",
                "eef1f5",
                "border",
                "cellpadding",
                "cellspacing",
                "width",
                "604",
                "align",
                "center",
                "valign",
                "top",
                "bgcolor",
                "e2e7ec",
                "style",
                "border-right",
                "4px",
                "solid",
                "eef1f5",
                "4px",
                "solid",
                "eef1f5",
                "padding",
                "10px",
                "30px",
                "40px",
                "font-size",
                "12px",
                "line-height",
                "20px",
                "height",
                "380",
                "width",
                "300",
                "table",
                "border",
                "cellpadding",
                "cellspacing",
                "align",
                "center",
                "valign",
                "middle",
                "width",
                "220",
                "height",
                "220",
                "img",
                "src",
                "alt",
                "your",
                "class",
                "assignments",
                "notebooks",
                "and",
                "more",
                "width",
                "220",
                "table",
                "style",
                "color",
                "16233a",
                "font-family",
                "segoe",
                "tahoma",
                "geneva",
                "verdana",
                "sans-serif",
                "font-size",
                "14px",
                "line-height",
                "20px",
                "margin",
                "your",
                "class",
                "assignments",
                "notebooks",
                "and",
                "more",
                "style",
                "color",
                "535c6d",
                "font-family",
                "segoe",
                "tahoma",
                "geneva",
                "verdana",
                "sans-serif",
                "font-size",
                "14px",
                "assignments",
                "files",
                "notebooks",
                "and",
                "class",
                "basics",
                "are",
                "all",
                "covered",
                "here",
                "plus",
                "engage",
                "your",
                "class",
                "with",
                "lively",
                "and",
                "added",
                "external",
                "resources",
                "align",
                "center",
                "valign",
                "top",
                "bgcolor",
                "e2e7ec",
                "style",
                "4px",
                "solid",
                "eef1f5",
                "padding",
                "10px",
                "28px",
                "40px",
                "font-size",
                "12px",
                "line-height",
                "20px",
                "height",
                "380",
                "width",
                "300",
                "table",
                "border",
                "cellpadding",
                "cellspacing",
                "align",
                "center",
                "valign",
                "middle",
                "width",
                "220",
                "height",
                "220",
                "img",
                "src",
                "alt",
                "gather",
                "around",
                "topic",
                "project",
                "width",
                "220",
                "table",
                "style",
                "color",
                "16233a",
                "font-family",
                "segoe",
                "tahoma",
                "geneva",
                "verdana",
                "sans-serif",
                "font-size",
                "14px",
                "line-height",
                "20px",
                "margin",
                "gather",
                "around",
                "topic",
                "project",
                "style",
                "color",
                "535c6d",
                "font-family",
                "segoe",
                "tahoma",
                "geneva",
                "verdana",
                "sans-serif",
                "font-size",
                "14px",
                "within",
                "any",
                "class",
                "add",
                "channels",
                "organize",
                "work",
                "around",
                "specific",
                "unit",
                "class",
                "activity",
                "table",
                "table",
                "bgcolor",
                "eef1f5",
                "cellspacing",
                "cellpadding",
                "border",
                "width",
                "604",
                "align",
                "center",
                "style",
                "padding",
                "30px",
                "162px",
                "table",
                "border",
                "cellspacing",
                "cellpadding",
                "width",
                "280",
                "align",
                "center",
                "bgcolor",
                "5558af",
                "style",
                "border",
                "2px",
                "solid",
                "5558af",
                "padding",
                "10px",
                "0px",
                "width",
                "280",
                "href",
                "target",
                "_blank",
                "style",
                "font-family",
                "segoe",
                "tahoma",
                "geneva",
                "verdana",
                "sans-serif",
                "font-size",
                "14px",
                "color",
                "fff",
                "none",
                "open",
                "microsoft",
                "teams",
                "table",
                "table",
                "table",
                "bgcolor",
                "eef1f5",
                "cellspacing",
                "cellpadding",
                "border",
                "width",
                "604",
                "height",
                "width",
                "nbsp",
                "height",
                "style",
                "border-top",
                "2px",
                "solid",
                "e2e7ec",
                "nbsp",
                "height",
                "width",
                "nbsp",
                "table",
                "table",
                "bgcolor",
                "eef1f5",
                "cellspacing",
                "cellpadding",
                "border",
                "width",
                "604",
                "colspan",
                "align",
                "center",
                "style",
                "padding",
                "30px",
                "style",
                "color",
                "16233a",
                "font-family",
                "segoe",
                "tahoma",
                "geneva",
                "verdana",
                "sans-serif",
                "font-weight",
                "normal",
                "margin",
                "get",
                "now",
                "take",
                "with",
                "you",
                "wherever",
                "you",
                "width",
                "150",
                "nbsp",
                "align",
                "right",
                "width",
                "style",
                "padding",
                "3px",
                "img",
                "src",
                "alt",
                "microsoft",
                "teams",
                "windows",
                "height",
                "width",
                "width",
                "style",
                "border-right",
                "2px",
                "solid",
                "e2e7ec",
                "color",
                "535c6d",
                "font-family",
                "segoe",
                "tahoma",
                "geneva",
                "verdana",
                "sans-serif",
                "font-size",
                "12px",
                "nbsp",
                "nbsp",
                "windows",
                "align",
                "right",
                "width",
                "style",
                "padding",
                "3px",
                "img",
                "src",
                "alt",
                "microsoft",
                "teams",
                "ios",
                "height",
                "width",
                "width",
                "116",
                "style",
                "color",
                "535c6d",
                "font-family",
                "segoe",
                "tahoma",
                "geneva",
                "verdana",
                "sans-serif",
                "font-size",
                "12px",
                "nbsp",
                "nbsp",
                "ios",
                "width",
                "150",
                "nbsp",
                "width",
                "150",
                "nbsp",
                "align",
                "right",
                "width",
                "style",
                "padding",
                "3px",
                "img",
                "src",
                "alt",
                "microsoft",
                "teams",
                "windows",
                "height",
                "width",
                "width",
                "style",
                "border-right",
                "2px",
                "solid",
                "e2e7ec",
                "color",
                "535c6d",
                "font-family",
                "segoe",
                "tahoma",
                "geneva",
                "verdana",
                "sans-serif",
                "font-size",
                "12px",
                "nbsp",
                "nbsp",
                "mac",
                "align",
                "right",
                "width",
                "style",
                "padding",
                "3px",
                "img",
                "src",
                "alt",
                "microsoft",
                "teams",
                "android",
                "height",
                "width",
                "width",
                "116",
                "style",
                "color",
                "535c6d",
                "font-family",
                "segoe",
                "tahoma",
                "geneva",
                "verdana",
                "sans-serif",
                "font-size",
                "12px",
                "nbsp",
                "nbsp",
                "android",
                "width",
                "150",
                "nbsp",
                "table",
                "table",
                "bgcolor",
                "eef1f5",
                "cellspacing",
                "cellpadding",
                "border",
                "width",
                "604",
                "colspan",
                "align",
                "center",
                "style",
                "padding",
                "20px",
                "202px",
                "24px",
                "table",
                "border",
                "cellspacing",
                "cellpadding",
                "width",
                "200",
                "align",
                "center",
                "style",
                "border",
                "2px",
                "solid",
                "5558af",
                "padding",
                "6px",
                "8px",
                "href",
                "target",
                "_blank",
                "style",
                "font-family",
                "segoe",
                "tahoma",
                "geneva",
                "verdana",
                "sans-serif",
                "font-size",
                "14px",
                "color",
                "5558af",
                "none",
                "downloads",
                "page",
                "table",
                "table",
                "table",
                "bgcolor",
                "eef1f5",
                "cellspacing",
                "cellpadding",
                "border",
                "width",
                "604",
                "height",
                "width",
                "nbsp",
                "height",
                "style",
                "border-top",
                "2px",
                "solid",
                "e2e7ec",
                "nbsp",
                "height",
                "width",
                "nbsp",
                "table",
                "table",
                "bgcolor",
                "eef1f5",
                "cellspacing",
                "cellpadding",
                "border",
                "width",
                "604",
                "colspan",
                "align",
                "center",
                "style",
                "color",
                "535c6d",
                "font-family",
                "segoe",
                "tahoma",
                "geneva",
                "verdana",
                "sans-serif",
                "font-size",
                "12px",
                "padding",
                "40px",
                "line-height",
                "18px",
                "169",
                "2019",
                "microsoft",
                "corporation",
                "one",
                "microsoft",
                "way",
                "redmond",
                "98052-7329",
                "href",
                "target",
                "_blank",
                "privacy",
                "policy",
                "table",
                "img",
                "src",
                "style",
                "display",
                "none",
                "table",
                "body",
                "html"
            ],
            "URL-List": [
                "http://www.w3.org/TR/REC-html40/loose.dtd",
                "http://go.microsoft.com/fwlink/p/?LinkID=512132",
                "https://teams.microsoft.com/l/team/19:e83dfec743cf41188c35c9820ac1e1d7@thread.tacv2/0",
                "https://statics.teams.microsoft.com/evergreen-assets/emails/add-teacher-class-1.png",
                "https://statics.teams.microsoft.com/evergreen-assets/emails/add-teacher-class-2.png",
                "https://teams.microsoft.com/l/team/19:e83dfec743cf41188c35c9820ac1e1d7@thread.tacv2/0",
                "https://statics.teams.microsoft.com/evergreen-assets/icons/icn_windows.png",
                "https://statics.teams.skype.com/icons/icn_apple.png",
                "https://statics.teams.skype.com/icons/icn_apple.png",
                "https://statics.teams.skype.com/icons/icn_android.png",
                "https://aka.ms/downloadteams",
                "https://urlshortener.teams.microsoft.com/8D7E535CD9496A7-7-0"
            ],
            "Domin-List": [
                "www.w3.org",
                "go.microsoft.com",
                "teams.microsoft.com",
                "statics.teams.microsoft.com",
                "statics.teams.microsoft.com",
                "teams.microsoft.com",
                "statics.teams.microsoft.com",
                "statics.teams.skype.com",
                "statics.teams.skype.com",
                "statics.teams.skype.com",
                "aka.ms",
                "urlshortener.teams.microsoft.com"
            ]
        },
        {
            "Category": 2000,
            "Sub-Category": 2001,
            "Content-Type": "image/jpeg",
            "Attach-Name": null,
            "Attach-Size": 1887,
            "MD5-Sum": "71f6d3b2208bb0ee6101f56c361ed583",
            "width": 64,
            "height": 64
        }
    ]
}